{
    "coord": {
        "lon": -78.54,
        "lat": -0.39
    },
    "weather": [
        {
            "id": 803,
            "main": "Clouds",
            "description": "broken clouds",
            "icon": "04n"
        }
    ],
    "base": "stations",
    "main": {
        "temp": 283.15,
        "pressure": 1028,
        "humidity": 100,
        "temp_min": 283.15,
        "temp_max": 283.15
    },
    "visibility": 10000,
    "wind": {
        "speed": 1,
        "deg": 340
    },
    "clouds": {
        "all": 75
    },
    "dt": 1516345200,
    "sys": {
        "type": 1,
        "id": 4361,
        "message": 0.0103,
        "country": "EC",
        "sunrise": 1516360850,
        "sunset": 1516404554
    },
    "id": 3652462,
    "name": "San Fransisco",
    "cod": 200
}